…
According the plot, we can see the points are approximately around 0,
when predictions are larger, residuals will decrease.

## compare the model

``` r
fit_1 = lm(bwt~blength+gaweeks,data=birthweight)
fit_2 = lm(bwt~bhead+blength+babysex, data=birthweight)

cv_df=crossv_mc(birthweight,100)

cv_df %>% pull(train) %>% .[[1]] %>% as_tibble
```

    ## # A tibble: 3,473 x 20
    ##    babysex bhead blength   bwt delwt fincome frace gaweeks malform menarche
    ##    <fct>   <int>   <int> <int> <int>   <int> <fct>   <dbl> <fct>      <int>
    ##  1 2          34      51  3629   177      35 1        39.9 0             13
    ##  2 2          36      50  3345   148      85 1        39.9 0             12
    ##  3 1          34      52  3062   157      55 1        40   0             14
    ##  4 2          34      52  3374   156       5 1        41.6 0             13
    ##  5 1          33      52  3374   129      55 1        40.7 0             12
    ##  6 2          33      46  2523   126      96 2        40.3 0             14
    ##  7 2          33      49  2778   140       5 1        37.4 0             12
    ##  8 1          36      52  3515   146      85 1        40.3 0             11
    ##  9 1          33      50  3459   169      75 2        40.7 0             12
    ## 10 1          35      51  3459   146      55 1        39.4 0             12
    ## # … with 3,463 more rows, and 10 more variables: mheight <int>,
    ## #   momage <int>, mrace <fct>, parity <int>, pnumlbw <int>, pnumsga <int>,
    ## #   ppbmi <dbl>, ppwt <int>, smoken <dbl>, wtgain <int>

``` r
cv_df %>% pull(test) %>% .[[1]] %>% as_tibble
```

    ## # A tibble: 869 x 20
    ##    babysex bhead blength   bwt delwt fincome frace gaweeks malform menarche
    ##    <fct>   <int>   <int> <int> <int>   <int> <fct>   <dbl> <fct>      <int>
    ##  1 1          34      48  3062   156      65 2        25.9 0             14
    ##  2 2          35      51  3317   130      55 1        43.4 0             13
    ##  3 1          35      51  3544   129      65 1        39.6 0             12
    ##  4 2          36      52  3629   154      65 1        40.3 0             11
    ##  5 1          34      52  3203   134      25 1        41.1 0             14
    ##  6 1          34      63  3175   143      25 1        41.9 0             13
    ##  7 1          36      52  3629   152      45 1        39.6 0             11
    ##  8 2          33      49  2948   129      25 1        41   0             13
    ##  9 1          35      51  3345   145      75 1        41.3 0             12
    ## 10 1          35      53  3175   130      45 1        40.4 0             13
    ## # … with 859 more rows, and 10 more variables: mheight <int>,
    ## #   momage <int>, mrace <fct>, parity <int>, pnumlbw <int>, pnumsga <int>,
    ## #   ppbmi <dbl>, ppwt <int>, smoken <dbl>, wtgain <int>
…
